"id (S)","CIF (S)","IBAN (S)","address (S)","bussinessname (S)","creation_date (S)","email (S)","phone (S)"
"2","XXXXXXX","ZZ1111222233334444","Casterly","House Lannister","13/08/2017T20:00:00","info@lannister.com","33333"
"1","XXXXXXX","ZZ1111222233334444","Winterfell","House Stark","13/08/2017T20:00:00","info@stark.com","33333"
