"id (S)","company_id (S)","description (S)","isDeleted (BOOL)","name (S)"
"0befcd80-a2a8-11e7-a724-b5ea9cb4587c","1","prueba","true","prueba"
"9c57bb00-9fbd-11e7-ab4e-5d930e7abdc4","1"," ","false","Android Developers"
"d5d3ebc0-9fb2-11e7-ab4e-5d930e7abdc4","1"," ","false","iOs Developers"
"a8218d20-aa31-11e7-96d4-e7de5d64b4e6","1","ppp","true","ppp"
"97b43ed0-aa2a-11e7-96d4-e7de5d64b4e6","1"," ","true","aaa"
"6dae6640-a62b-11e7-97ae-4b1909f1d8d5","1"," ","true","Marketing Online"
"7a1795a0-a62b-11e7-97ae-4b1909f1d8d5","1"," ","false","Marketing Online"
"69055090-a62b-11e7-97ae-4b1909f1d8d5","1"," ","false","Backend Developers"
"da756050-9fb2-11e7-ab4e-5d930e7abdc4","1"," ","false","Web Developers"
"6a6d8440-aa2a-11e7-96d4-e7de5d64b4e6","1"," ","true","bbb"
"a90a9d90-9fbd-11e7-ab4e-5d930e7abdc4","1"," ","true","CEO"
"28f52060-a2d0-11e7-a983-73fd8a86593f","1","Dep","true","new"
